{
	"info": {
		"_postman_id": "03175118-422a-4838-9eef-205b53b9d4e1",
		"name": "Builders Doc API",
		"description": "Essa uma API MVP de um cadastro de clientes onde é possível criar, editar, deletar, listar e atualizar os dados por completo e também de forma granular.\n\nDentre os requests possíveis constam \nrequisições GET / POST / PUT / DELETE.\n\nExistem duas pastas sendo Testes de localhost e testes na aplicação na nuvem hospedada no Heroku.",
		"schema": "https://schema.getpostman.com/json/collection/v2.1.0/collection.json"
	},
	"item": [
		{
			"name": "Testes localhost",
			"item": [
				{
					"name": "Buscar todos os clientes",
					"event": [
						{
							"listen": "test",
							"script": {
								"exec": [
									"//verifica o stats de retorno da requisição\r",
									"pm.test('Request bem sucedido com um código de status 200', function () {\r",
									"  pm.response.to.have.status(200);\r",
									"});\r",
									"\r",
									"// Verifica se existem 10 clientes na response\r",
									"pm.test('Validação do Response length=10', function () {\r",
									"     pm.expect(pm.response.json().length).to.eql(10);\r",
									"});"
								],
								"type": "text/javascript"
							}
						}
					],
					"request": {
						"method": "GET",
						"header": [],
						"url": {
							"raw": "http://localhost:8080/api/v1/clientes",
							"protocol": "http",
							"host": [
								"localhost"
							],
							"port": "8080",
							"path": [
								"api",
								"v1",
								"clientes"
							]
						},
						"description": "Retorno de todos os clientes"
					},
					"response": []
				},
				{
					"name": "Buscar todos os clientes Paginado",
					"event": [
						{
							"listen": "test",
							"script": {
								"exec": [
									"//verifica o stats de retorno da requisição\r",
									"pm.test('Request bem sucedido com um código de status 200', function () {\r",
									"  pm.response.to.have.status(200);\r",
									"});\r",
									"\r",
									"// Verifica se existem 10 clientes na response\r",
									"pm.test('Validação do Response length=10', function () {\r",
									"     pm.expect(pm.response.json().content.length).to.eql(10);\r",
									"});\r",
									"\r",
									"//verifica os dados da paginação\r",
									"pm.test('Validação da paginação', function () {\r",
									"\r",
									"var page = pm.response.json();\r",
									"\r",
									"pm.expect(page.pageable.pageNumber).to.eql(0);\r",
									"pm.expect(page.pageable.pageSize).to.eql(24);\r",
									"pm.expect(page.pageable.paged).to.eql(true);\r",
									"pm.expect(page.pageable.unpaged).to.eql(false);\r",
									"\r",
									"pm.expect(page.totalPages).to.eql(1);\r",
									"pm.expect(page.totalElements).to.eql(10);\r",
									"pm.expect(page.last).to.eql(true);\r",
									"pm.expect(page.size).to.eql(24);\r",
									"pm.expect(page.number).to.eql(0);\r",
									"\r",
									"pm.expect(page.pageable.sort.sorted).to.eql(true);\r",
									"pm.expect(page.pageable.sort.unsorted).to.eql(false);\r",
									"pm.expect(page.pageable.sort.empty).to.eql(false);\r",
									"\r",
									"pm.expect(page.numberOfElements).to.eql(10);\r",
									"pm.expect(page.first).to.eql(true);\r",
									"pm.expect(page.empty).to.eql(false);\r",
									"});\r",
									""
								],
								"type": "text/javascript"
							}
						}
					],
					"request": {
						"method": "GET",
						"header": [],
						"url": {
							"raw": "http://localhost:8080/api/v1/clientes/page?linesPerPage=24&page=0&orderBy=idade&direction=DESC",
							"protocol": "http",
							"host": [
								"localhost"
							],
							"port": "8080",
							"path": [
								"api",
								"v1",
								"clientes",
								"page"
							],
							"query": [
								{
									"key": "linesPerPage",
									"value": "24"
								},
								{
									"key": "page",
									"value": "0"
								},
								{
									"key": "orderBy",
									"value": "idade"
								},
								{
									"key": "direction",
									"value": "DESC"
								}
							]
						},
						"description": "Retorno de clientes com parametros para paginação"
					},
					"response": []
				},
				{
					"name": "Buscar clientes por nome Paginado",
					"event": [
						{
							"listen": "test",
							"script": {
								"exec": [
									"pm.test(\"Request bem sucedido com um código de status 200\", function () {\r",
									"  pm.response.to.have.status(200);\r",
									"});\r",
									"\r",
									"// Verifica se existem 2 clientes na response\r",
									"pm.test('Validação do Response length = 2', function () {\r",
									"     pm.expect(pm.response.json().content.length).to.eql(2);\r",
									"});\r",
									"\r",
									"//verifica os dados do cliente 1\r",
									"pm.test('Validação de dados do response cliente id 1 e 7', function () {\r",
									"var response = pm.response.json().content;\r",
									"\r",
									"    for(i=0;i<response.length; i++){\r",
									"\r",
									"        if(response[i].id==1){\r",
									"            pm.expect(response[i].nome).to.eql('Diego Henrique');\r",
									"            pm.expect(response[i].idade).to.eql(30);\r",
									"            pm.expect(response[i].cpf).to.eql('03891340583');\r",
									"            pm.expect(response[i].sexo).to.eql('MASCULINO');\r",
									"        }\r",
									"\r",
									"        if(response[i].id==7){\r",
									"            pm.expect(response[i].nome).to.eql('Carlos Henrique');\r",
									"            pm.expect(response[i].idade).to.eql(68);\r",
									"            pm.expect(response[i].cpf).to.eql('61191188027');\r",
									"            pm.expect(response[i].sexo).to.eql('MASCULINO');\r",
									"        }\r",
									"        \r",
									"    }\r",
									"});\r",
									"\r",
									"//verifica os dados da paginação\r",
									"pm.test('Validação da paginação', function () {\r",
									"\r",
									"var page = pm.response.json();\r",
									"\r",
									"pm.expect(page.pageable.pageNumber).to.eql(0);\r",
									"pm.expect(page.pageable.pageSize).to.eql(2);\r",
									"pm.expect(page.pageable.paged).to.eql(true);\r",
									"pm.expect(page.pageable.unpaged).to.eql(false);\r",
									"\r",
									"pm.expect(page.totalPages).to.eql(1);\r",
									"pm.expect(page.totalElements).to.eql(2);\r",
									"pm.expect(page.last).to.eql(true);\r",
									"pm.expect(page.size).to.eql(2);\r",
									"pm.expect(page.number).to.eql(0);\r",
									"\r",
									"pm.expect(page.pageable.sort.sorted).to.eql(true);\r",
									"pm.expect(page.pageable.sort.unsorted).to.eql(false);\r",
									"pm.expect(page.pageable.sort.empty).to.eql(false);\r",
									"\r",
									"pm.expect(page.numberOfElements).to.eql(2);\r",
									"pm.expect(page.first).to.eql(true);\r",
									"pm.expect(page.empty).to.eql(false);\r",
									"});"
								],
								"type": "text/javascript"
							}
						}
					],
					"request": {
						"method": "GET",
						"header": [],
						"url": {
							"raw": "http://localhost:8080/api/v1/clientes/pageNome?nome=Henrique&linesPerPage=2&page=0&orderBy=idade&direction=DESC",
							"protocol": "http",
							"host": [
								"localhost"
							],
							"port": "8080",
							"path": [
								"api",
								"v1",
								"clientes",
								"pageNome"
							],
							"query": [
								{
									"key": "nome",
									"value": "Henrique"
								},
								{
									"key": "linesPerPage",
									"value": "2"
								},
								{
									"key": "page",
									"value": "0"
								},
								{
									"key": "orderBy",
									"value": "idade"
								},
								{
									"key": "direction",
									"value": "DESC"
								}
							]
						},
						"description": "Retorno de clientes com parametro de nome completo ou parcial e parametros para paginação"
					},
					"response": []
				},
				{
					"name": "Buscar clientes por Idade Paginado",
					"event": [
						{
							"listen": "test",
							"script": {
								"exec": [
									"pm.test(\"Request bem sucedido com um código de status 200\", function () {\r",
									"  pm.response.to.have.status(200);\r",
									"});\r",
									"\r",
									"// Verifica se existem 2 clientes na response\r",
									"pm.test('Validação do Response length = 2', function () {\r",
									"     pm.expect(pm.response.json().content.length).to.eql(4);\r",
									"});\r",
									"\r",
									"//verifica idades dos clientes\r",
									"pm.test('Validação de idade dos clientes', function () {\r",
									"var response = pm.response.json().content;\r",
									"    for(i=0;i<response.length; i++){\r",
									"        pm.expect(response[i].idade).to.eql(30);\r",
									"    }\r",
									"});\r",
									"\r",
									"//verifica os dados da paginação\r",
									"pm.test('Validação da paginação', function () {\r",
									"\r",
									"var page = pm.response.json();\r",
									"\r",
									"pm.expect(page.pageable.pageNumber).to.eql(0);\r",
									"pm.expect(page.pageable.pageSize).to.eql(24);\r",
									"pm.expect(page.pageable.paged).to.eql(true);\r",
									"pm.expect(page.pageable.unpaged).to.eql(false);\r",
									"\r",
									"pm.expect(page.totalPages).to.eql(1);\r",
									"pm.expect(page.totalElements).to.eql(4);\r",
									"pm.expect(page.last).to.eql(true);\r",
									"pm.expect(page.size).to.eql(24);\r",
									"pm.expect(page.number).to.eql(0);\r",
									"\r",
									"pm.expect(page.pageable.sort.sorted).to.eql(true);\r",
									"pm.expect(page.pageable.sort.unsorted).to.eql(false);\r",
									"pm.expect(page.pageable.sort.empty).to.eql(false);\r",
									"\r",
									"pm.expect(page.numberOfElements).to.eql(4);\r",
									"pm.expect(page.first).to.eql(true);\r",
									"pm.expect(page.empty).to.eql(false);\r",
									"});\r",
									""
								],
								"type": "text/javascript"
							}
						}
					],
					"request": {
						"method": "GET",
						"header": [],
						"url": {
							"raw": "http://localhost:8080/api/v1/clientes/pageIdade?idade=30",
							"protocol": "http",
							"host": [
								"localhost"
							],
							"port": "8080",
							"path": [
								"api",
								"v1",
								"clientes",
								"pageIdade"
							],
							"query": [
								{
									"key": "idade",
									"value": "30"
								}
							]
						},
						"description": "Retorno de clientes com parametro de idade e parametros para paginação"
					},
					"response": []
				},
				{
					"name": "Buscar clientes por sexo Paginado",
					"event": [
						{
							"listen": "test",
							"script": {
								"exec": [
									"pm.test(\"Request bem sucedido com um código de status 200\", function () {\r",
									"  pm.response.to.have.status(200);\r",
									"});\r",
									"\r",
									"\r",
									"//verifica sexo dos clientes\r",
									"pm.test('Validação de idade dos clientes', function () {\r",
									"var response = pm.response.json().content;\r",
									"    for(i=0;i<response.length; i++){\r",
									"        pm.expect(response[i].sexo).to.eql('MASCULINO');\r",
									"    }\r",
									"});\r",
									"\r",
									"//verifica os dados da paginação\r",
									"pm.test('Validação da paginação', function () {\r",
									"\r",
									"var page = pm.response.json();\r",
									"\r",
									"pm.expect(page.pageable.pageNumber).to.eql(0);\r",
									"pm.expect(page.pageable.pageSize).to.eql(24);\r",
									"pm.expect(page.pageable.paged).to.eql(true);\r",
									"pm.expect(page.pageable.unpaged).to.eql(false);\r",
									"\r",
									"pm.expect(page.totalPages).to.eql(1);\r",
									"pm.expect(page.totalElements).to.eql(6);\r",
									"pm.expect(page.last).to.eql(true);\r",
									"pm.expect(page.size).to.eql(24);\r",
									"pm.expect(page.number).to.eql(0);\r",
									"\r",
									"pm.expect(page.pageable.sort.sorted).to.eql(true);\r",
									"pm.expect(page.pageable.sort.unsorted).to.eql(false);\r",
									"pm.expect(page.pageable.sort.empty).to.eql(false);\r",
									"\r",
									"pm.expect(page.numberOfElements).to.eql(6);\r",
									"pm.expect(page.first).to.eql(true);\r",
									"pm.expect(page.empty).to.eql(false);\r",
									"});"
								],
								"type": "text/javascript"
							}
						}
					],
					"request": {
						"method": "GET",
						"header": [],
						"url": {
							"raw": "http://localhost:8080/api/v1/clientes/pageSexo?sexo=MASCULINO",
							"protocol": "http",
							"host": [
								"localhost"
							],
							"port": "8080",
							"path": [
								"api",
								"v1",
								"clientes",
								"pageSexo"
							],
							"query": [
								{
									"key": "sexo",
									"value": "MASCULINO"
								}
							]
						},
						"description": "Retorno de clientes com parametro de sexo e parametros para paginação"
					},
					"response": []
				},
				{
					"name": "Buscar Cliente por ID",
					"event": [
						{
							"listen": "test",
							"script": {
								"exec": [
									"pm.test(\"Request bem sucedido com um código de status 200\", function () {\r",
									"  pm.response.to.have.status(200);\r",
									"});\r",
									"\r",
									"//verifica dados do cliente retornado via ID\r",
									"pm.test('Validação de dados do cliente id 1', function () {\r",
									"var response = pm.response.json();\r",
									"\r",
									"    pm.expect(response.id).to.eql(1);\r",
									"    pm.expect(response.nome).to.eql('Diego Henrique');\r",
									"    pm.expect(response.idade).to.eql(30);\r",
									"    pm.expect(response.cpf).to.eql('03891340583');\r",
									"    pm.expect(response.sexo).to.eql('MASCULINO');\r",
									"\r",
									"});"
								],
								"type": "text/javascript"
							}
						}
					],
					"request": {
						"method": "GET",
						"header": [],
						"url": {
							"raw": "http://localhost:8080/api/v1/clientes/1",
							"protocol": "http",
							"host": [
								"localhost"
							],
							"port": "8080",
							"path": [
								"api",
								"v1",
								"clientes",
								"1"
							]
						},
						"description": "busca cliente pelo ID"
					},
					"response": []
				},
				{
					"name": "Buscar Cliente por CPF",
					"event": [
						{
							"listen": "test",
							"script": {
								"exec": [
									"pm.test(\"Request bem sucedido com um código de status 200\", function () {\r",
									"  pm.response.to.have.status(200);\r",
									"});\r",
									"\r",
									"//verifica dados do cliente retornado via CPF\r",
									"pm.test('Validação de dados do cliente CPF 03891340583', function () {\r",
									"var response = pm.response.json();\r",
									"\r",
									"    pm.expect(response.id).to.eql(1);\r",
									"    pm.expect(response.nome).to.eql('Diego Henrique');\r",
									"    pm.expect(response.idade).to.eql(30);\r",
									"    pm.expect(response.cpf).to.eql('03891340583');\r",
									"    pm.expect(response.sexo).to.eql('MASCULINO');\r",
									"\r",
									"});"
								],
								"type": "text/javascript"
							}
						}
					],
					"request": {
						"method": "GET",
						"header": [],
						"url": {
							"raw": "http://localhost:8080/api/v1/clientes/cpf/03891340583",
							"protocol": "http",
							"host": [
								"localhost"
							],
							"port": "8080",
							"path": [
								"api",
								"v1",
								"clientes",
								"cpf",
								"03891340583"
							]
						},
						"description": "busca cliente pelo Cpf"
					},
					"response": []
				},
				{
					"name": "Buscar Cliente por Nome",
					"event": [
						{
							"listen": "test",
							"script": {
								"exec": [
									"pm.test(\"Request bem sucedido com um código de status 200\", function () {\r",
									"  pm.response.to.have.status(200);\r",
									"});\r",
									"\r",
									"//verifica dados do cliente retornado via nome\r",
									"pm.test('Validação de dados do cliente Nome Luzia Dantas', function () {\r",
									"var response = pm.response.json();\r",
									"\r",
									"    pm.expect(response.id).to.eql(6);\r",
									"    pm.expect(response.nome).to.eql('Luzia Dantas');\r",
									"    pm.expect(response.idade).to.eql(55);\r",
									"    pm.expect(response.cpf).to.eql('56470434029');\r",
									"    pm.expect(response.sexo).to.eql('FEMININO');\r",
									"\r",
									"});"
								],
								"type": "text/javascript"
							}
						}
					],
					"request": {
						"method": "GET",
						"header": [],
						"url": {
							"raw": "http://localhost:8080/api/v1/clientes/nome/Luzia Dantas",
							"protocol": "http",
							"host": [
								"localhost"
							],
							"port": "8080",
							"path": [
								"api",
								"v1",
								"clientes",
								"nome",
								"Luzia Dantas"
							]
						},
						"description": "busca cliente pelo Nome"
					},
					"response": []
				},
				{
					"name": "Buscar Cliente por Sexo",
					"event": [
						{
							"listen": "test",
							"script": {
								"exec": [
									"pm.test(\"Request bem sucedido com um código de status 200\", function () {\r",
									"  pm.response.to.have.status(200);\r",
									"});\r",
									"\r",
									"//verifica sexo dos clientes\r",
									"pm.test('Validação de idade dos clientes', function () {\r",
									"var response = pm.response.json();\r",
									"    for(i=0;i<response.length; i++){\r",
									"        pm.expect(response[i].sexo).to.eql('MASCULINO');\r",
									"    }\r",
									"});"
								],
								"type": "text/javascript"
							}
						}
					],
					"request": {
						"method": "GET",
						"header": [],
						"url": {
							"raw": "http://localhost:8080/api/v1/clientes/sexo/MASCULINO",
							"protocol": "http",
							"host": [
								"localhost"
							],
							"port": "8080",
							"path": [
								"api",
								"v1",
								"clientes",
								"sexo",
								"MASCULINO"
							]
						},
						"description": "busca cliente pelo sexo\r\nMASCULINO\r\nFEMININO"
					},
					"response": []
				},
				{
					"name": "Criar Cliente",
					"event": [
						{
							"listen": "test",
							"script": {
								"exec": [
									"pm.test(\"Request bem sucedido com um código de status 201\", function () {\r",
									"  pm.response.to.have.status(201);\r",
									"});"
								],
								"type": "text/javascript"
							}
						}
					],
					"request": {
						"method": "POST",
						"header": [],
						"body": {
							"mode": "raw",
							"raw": "{\n\t\"nome\":\"Nome Teste\",\n    \"idade\": 30,\n    \"cpf\": \"19939194064\",\n    \"sexo\": 0\n}",
							"options": {
								"raw": {
									"language": "json"
								}
							}
						},
						"url": {
							"raw": "http://localhost:8080/api/v1/clientes",
							"protocol": "http",
							"host": [
								"localhost"
							],
							"port": "8080",
							"path": [
								"api",
								"v1",
								"clientes"
							]
						},
						"description": "Inserir novo cliente com validador de CPF e campos obrigatorios"
					},
					"response": []
				},
				{
					"name": "Atualizar Cliente por ID",
					"event": [
						{
							"listen": "test",
							"script": {
								"exec": [
									"pm.test(\"Request bem sucedido com um código de status 204\", function () {\r",
									"  pm.response.to.have.status(204);\r",
									"});"
								],
								"type": "text/javascript"
							}
						}
					],
					"request": {
						"method": "PUT",
						"header": [],
						"body": {
							"mode": "raw",
							"raw": "{\n\t\"nome\":\"DIEGO novo nome\",\n    \"idade\": 99,\n    \"cpf\": \"29418946084\",\n    \"sexo\": 1\n}\n",
							"options": {
								"raw": {
									"language": "json"
								}
							}
						},
						"url": {
							"raw": "http://localhost:8080/api/v1/clientes/1",
							"protocol": "http",
							"host": [
								"localhost"
							],
							"port": "8080",
							"path": [
								"api",
								"v1",
								"clientes",
								"1"
							]
						},
						"description": "Atualiza cliente por ID com validador de CPF valido.\r\npode-se atualizar 1 ou mais campos por vez"
					},
					"response": []
				},
				{
					"name": "Deletar Cliente por ID",
					"event": [
						{
							"listen": "test",
							"script": {
								"exec": [
									"pm.test(\"Request bem sucedido com um código de status 204\", function () {\r",
									"  pm.response.to.have.status(204);\r",
									"});"
								],
								"type": "text/javascript"
							}
						}
					],
					"request": {
						"method": "DELETE",
						"header": [],
						"url": {
							"raw": "http://localhost:8080/api/v1/clientes/1",
							"protocol": "http",
							"host": [
								"localhost"
							],
							"port": "8080",
							"path": [
								"api",
								"v1",
								"clientes",
								"1"
							]
						},
						"description": "Deletar cliente por ID"
					},
					"response": []
				}
			],
			"description": "Testes de requisições no localhost subindo o projeto localmente"
		},
		{
			"name": "Testes Heroku",
			"item": [
				{
					"name": "Buscar todos os clientes",
					"event": [
						{
							"listen": "test",
							"script": {
								"exec": [
									"pm.test(\"Request bem sucedido com um código de status 200\", function () {\r",
									"  pm.response.to.have.status(200);\r",
									"});"
								],
								"type": "text/javascript"
							}
						}
					],
					"request": {
						"method": "GET",
						"header": [],
						"url": {
							"raw": "https://case-builders.herokuapp.com/api/v1/clientes/",
							"protocol": "https",
							"host": [
								"case-builders",
								"herokuapp",
								"com"
							],
							"path": [
								"api",
								"v1",
								"clientes",
								""
							]
						},
						"description": "Retorno de todos os clientes"
					},
					"response": []
				},
				{
					"name": "Buscar todos os clientes Paginado",
					"event": [
						{
							"listen": "test",
							"script": {
								"exec": [
									"pm.test(\"Request bem sucedido com um código de status 200\", function () {\r",
									"  pm.response.to.have.status(200);\r",
									"});"
								],
								"type": "text/javascript"
							}
						}
					],
					"request": {
						"method": "GET",
						"header": [],
						"url": {
							"raw": "https://case-builders.herokuapp.com/api/v1/clientes/page?linesPerPage=24&page=0&orderBy=idade&direction=DESC",
							"protocol": "https",
							"host": [
								"case-builders",
								"herokuapp",
								"com"
							],
							"path": [
								"api",
								"v1",
								"clientes",
								"page"
							],
							"query": [
								{
									"key": "linesPerPage",
									"value": "24"
								},
								{
									"key": "page",
									"value": "0"
								},
								{
									"key": "orderBy",
									"value": "idade"
								},
								{
									"key": "direction",
									"value": "DESC"
								}
							]
						},
						"description": "Retorno de clientes com parametros para paginação"
					},
					"response": []
				},
				{
					"name": "Buscar clientes por nome Paginado",
					"event": [
						{
							"listen": "test",
							"script": {
								"exec": [
									"pm.test(\"Request bem sucedido com um código de status 200\", function () {\r",
									"  pm.response.to.have.status(200);\r",
									"});"
								],
								"type": "text/javascript"
							}
						}
					],
					"request": {
						"method": "GET",
						"header": [],
						"url": {
							"raw": "https://case-builders.herokuapp.com/api/v1/clientes/pageNome?nome=Henrique",
							"protocol": "https",
							"host": [
								"case-builders",
								"herokuapp",
								"com"
							],
							"path": [
								"api",
								"v1",
								"clientes",
								"pageNome"
							],
							"query": [
								{
									"key": "nome",
									"value": "Henrique"
								}
							]
						},
						"description": "Retorno de clientes com parametro de nome completo ou parcial e parametros para paginação"
					},
					"response": []
				},
				{
					"name": "Buscar clientes por Idade Paginado",
					"event": [
						{
							"listen": "test",
							"script": {
								"exec": [
									"pm.test(\"Request bem sucedido com um código de status 200\", function () {\r",
									"  pm.response.to.have.status(200);\r",
									"});"
								],
								"type": "text/javascript"
							}
						}
					],
					"request": {
						"method": "GET",
						"header": [],
						"url": {
							"raw": "https://case-builders.herokuapp.com/api/v1/clientes/pageIdade?idade=30",
							"protocol": "https",
							"host": [
								"case-builders",
								"herokuapp",
								"com"
							],
							"path": [
								"api",
								"v1",
								"clientes",
								"pageIdade"
							],
							"query": [
								{
									"key": "idade",
									"value": "30"
								}
							]
						},
						"description": "Retorno de clientes com parametro de idade e parametros para paginação"
					},
					"response": []
				},
				{
					"name": "Buscar clientes por sexo Paginado",
					"event": [
						{
							"listen": "test",
							"script": {
								"exec": [
									"pm.test(\"Request bem sucedido com um código de status 200\", function () {\r",
									"  pm.response.to.have.status(200);\r",
									"});"
								],
								"type": "text/javascript"
							}
						}
					],
					"request": {
						"method": "GET",
						"header": [],
						"url": {
							"raw": "https://case-builders.herokuapp.com/api/v1/clientes/pageSexo?sexo=MASCULINO",
							"protocol": "https",
							"host": [
								"case-builders",
								"herokuapp",
								"com"
							],
							"path": [
								"api",
								"v1",
								"clientes",
								"pageSexo"
							],
							"query": [
								{
									"key": "sexo",
									"value": "MASCULINO"
								}
							]
						},
						"description": "Retorno de clientes com parametro de idade e parametros para paginação"
					},
					"response": []
				},
				{
					"name": "Buscar Cliente por ID",
					"event": [
						{
							"listen": "test",
							"script": {
								"exec": [
									"pm.test(\"Request bem sucedido com um código de status 200\", function () {\r",
									"  pm.response.to.have.status(200);\r",
									"});"
								],
								"type": "text/javascript"
							}
						}
					],
					"request": {
						"method": "GET",
						"header": [],
						"url": {
							"raw": "https://case-builders.herokuapp.com/api/v1/clientes/15",
							"protocol": "https",
							"host": [
								"case-builders",
								"herokuapp",
								"com"
							],
							"path": [
								"api",
								"v1",
								"clientes",
								"15"
							]
						},
						"description": "busca cliente pelo ID"
					},
					"response": []
				},
				{
					"name": "Buscar Cliente por CPF",
					"event": [
						{
							"listen": "test",
							"script": {
								"exec": [
									"pm.test(\"Request bem sucedido com um código de status 200\", function () {\r",
									"  pm.response.to.have.status(200);\r",
									"});"
								],
								"type": "text/javascript"
							}
						}
					],
					"request": {
						"method": "GET",
						"header": [],
						"url": {
							"raw": "https://case-builders.herokuapp.com/api/v1/clientes/cpf/03891340583",
							"protocol": "https",
							"host": [
								"case-builders",
								"herokuapp",
								"com"
							],
							"path": [
								"api",
								"v1",
								"clientes",
								"cpf",
								"03891340583"
							]
						},
						"description": "busca cliente pelo Cpf"
					},
					"response": []
				},
				{
					"name": "Buscar Cliente por Nome",
					"event": [
						{
							"listen": "test",
							"script": {
								"exec": [
									"pm.test(\"Request bem sucedido com um código de status 200\", function () {\r",
									"  pm.response.to.have.status(200);\r",
									"});"
								],
								"type": "text/javascript"
							}
						}
					],
					"request": {
						"method": "GET",
						"header": [],
						"url": {
							"raw": "https://case-builders.herokuapp.com/api/v1/clientes/nome/José",
							"protocol": "https",
							"host": [
								"case-builders",
								"herokuapp",
								"com"
							],
							"path": [
								"api",
								"v1",
								"clientes",
								"nome",
								"José"
							]
						},
						"description": "busca cliente pelo Nome"
					},
					"response": []
				},
				{
					"name": "Buscar Cliente por Sexo",
					"event": [
						{
							"listen": "test",
							"script": {
								"exec": [
									"pm.test(\"Request bem sucedido com um código de status 200\", function () {\r",
									"  pm.response.to.have.status(200);\r",
									"});"
								],
								"type": "text/javascript"
							}
						}
					],
					"request": {
						"method": "GET",
						"header": [],
						"url": {
							"raw": "https://case-builders.herokuapp.com/api/v1/clientes/sexo/MASCULINO",
							"protocol": "https",
							"host": [
								"case-builders",
								"herokuapp",
								"com"
							],
							"path": [
								"api",
								"v1",
								"clientes",
								"sexo",
								"MASCULINO"
							]
						},
						"description": "busca cliente pelo sexo\r\nMASCULINO\r\nFEMININO"
					},
					"response": []
				},
				{
					"name": "Criar Cliente",
					"event": [
						{
							"listen": "test",
							"script": {
								"exec": [
									"pm.test(\"Request bem sucedido com um código de status 201\", function () {\r",
									"  pm.response.to.have.status(201);\r",
									"});"
								],
								"type": "text/javascript"
							}
						}
					],
					"request": {
						"method": "POST",
						"header": [],
						"body": {
							"mode": "raw",
							"raw": "{\n\t\"nome\":\"Nome Teste\",\n    \"idade\": 30,\n    \"cpf\": \"19939194064\",\n    \"sexo\": 0\n}",
							"options": {
								"raw": {
									"language": "json"
								}
							}
						},
						"url": {
							"raw": "https://case-builders.herokuapp.com/api/v1/clientes",
							"protocol": "https",
							"host": [
								"case-builders",
								"herokuapp",
								"com"
							],
							"path": [
								"api",
								"v1",
								"clientes"
							]
						},
						"description": "Inserir novo cliente com validador de CPF e campos obrigatorios"
					},
					"response": []
				},
				{
					"name": "Atualizar Cliente por ID",
					"event": [
						{
							"listen": "test",
							"script": {
								"exec": [
									"pm.test(\"Request bem sucedido com um código de status 204\", function () {\r",
									"  pm.response.to.have.status(204);\r",
									"});"
								],
								"type": "text/javascript"
							}
						}
					],
					"request": {
						"method": "PUT",
						"header": [],
						"body": {
							"mode": "raw",
							"raw": "{\n\t\"nome\":\"DIEGO novo nome\",\n    \"idade\": 99,\n    \"cpf\": \"29418946084\",\n    \"sexo\": 1\n}\n",
							"options": {
								"raw": {
									"language": "json"
								}
							}
						},
						"url": {
							"raw": "https://case-builders.herokuapp.com/api/v1/clientes/15",
							"protocol": "https",
							"host": [
								"case-builders",
								"herokuapp",
								"com"
							],
							"path": [
								"api",
								"v1",
								"clientes",
								"15"
							]
						},
						"description": "Atualiza cliente por ID com validador de CPF valido.\r\npode-se atualizar 1 ou mais campos por vez"
					},
					"response": []
				},
				{
					"name": "Deletar Cliente por ID",
					"event": [
						{
							"listen": "test",
							"script": {
								"exec": [
									"pm.test(\"Request bem sucedido com um código de status 204\", function () {\r",
									"  pm.response.to.have.status(204);\r",
									"});"
								],
								"type": "text/javascript"
							}
						}
					],
					"request": {
						"method": "DELETE",
						"header": [],
						"url": {
							"raw": "https://case-builders.herokuapp.com/api/v1/clientes/85",
							"protocol": "https",
							"host": [
								"case-builders",
								"herokuapp",
								"com"
							],
							"path": [
								"api",
								"v1",
								"clientes",
								"85"
							]
						},
						"description": "Deletar cliente por ID"
					},
					"response": []
				}
			],
			"description": "Testes de requisições na aplicação hospedada no Heroku."
		}
	],
	"event": [
		{
			"listen": "prerequest",
			"script": {
				"type": "text/javascript",
				"exec": [
					""
				]
			}
		},
		{
			"listen": "test",
			"script": {
				"type": "text/javascript",
				"exec": [
					""
				]
			}
		}
	]
}